<?xml version="1.0" encoding="utf-8"?>
<!-- Generator: Adobe Illustrator 23.0.0, SVG Export Plug-In . SVG Version: 6.00 Build 0)  -->
<svg version="1.1" id="レイヤー_1" xmlns="http://www.w3.org/2000/svg" xmlns:xlink="http://www.w3.org/1999/xlink" x="0px"
	 y="0px" viewBox="0 0 20 20" style="enable-background:new 0 0 20 20;" xml:space="preserve">
<style type="text/css">
	.st0{fill:#FFFFFF;}
	.st1{fill:none;}
</style>
<g>
	<path class="st0" d="M10.04,13.02c-5.01,0-9.07-1.72-9.07-3.85v2.21c0,2.13,4.06,3.85,9.07,3.85s9.07-1.72,9.07-3.85V9.17
		C19.11,11.3,15.05,13.02,10.04,13.02z"/>
	<path class="st0" d="M10.04,16.54c-5.01,0-9.07-1.72-9.07-3.85v2.21c0,2.13,4.06,3.85,9.07,3.85s9.07-1.72,9.07-3.85v-2.21
		C19.11,14.81,15.05,16.54,10.04,16.54z"/>
	<rect x="16.88" y="8.21" class="st1" width="0.2" height="1.92"/>
	<rect x="17.64" y="7.77" class="st1" width="0.2" height="1.92"/>
	<rect x="15.93" y="8.59" class="st1" width="0.2" height="1.92"/>
	<rect x="18.37" y="6.81" class="st1" width="0.2" height="1.92"/>
	<path class="st0" d="M10.04,1.91c-5.01,0-9.07,1.72-9.07,3.85v2.21c0,2.13,4.06,3.85,9.07,3.85c5.01,0,9.07-1.72,9.07-3.85V5.76
		C19.11,3.64,15.05,1.91,10.04,1.91z M10.04,2.54c4.19,0,7.59,1.44,7.59,3.22s-3.4,3.22-7.59,3.22c-4.19,0-7.59-1.44-7.59-3.22
		S5.85,2.54,10.04,2.54z M15.93,10.51V8.69c0.07-0.03,0.13-0.05,0.2-0.08v1.89H15.93z M17.08,10.13h-0.2V8.29
		c0.05-0.03,0.11-0.05,0.17-0.08h0.04V10.13z M17.85,9.68h-0.2V7.86c0.05-0.03,0.09-0.06,0.13-0.09h0.07V9.68z M18.58,8.73h-0.2
		V7.28c0.08-0.07,0.14-0.15,0.2-0.23V8.73z"/>
	<g>
		<path class="st0" d="M9.63,3.58C8.56,3.53,7.4,3.66,6.46,4.56C5.63,5.34,6.01,5.93,6.73,6.13c0.77,0.21,1.55,0.01,2.81-0.66
			c1.85-1.02,3.38-1.66,4.75-1.28c1.52,0.41,1.49,1.64,0.34,2.76c-0.73,0.73-1.67,1.28-2.27,1.63c-0.37-0.03-1.43-0.15-2.19-0.25
			l0.23-0.36c1.31,0.05,2.79-0.2,3.81-1.18c0.72-0.72,0.7-1.38-0.28-1.65c-0.79-0.21-1.75-0.06-3.12,0.67
			C8.82,6.87,7.54,7.3,6.28,6.96c-1.22-0.33-1.5-1.32-0.15-2.64c0.72-0.69,1.25-1.01,1.72-1.36c0.58,0.08,1.18,0.17,1.99,0.29
			L9.63,3.58z M5.07,4.11l0.37-0.36l10.34,3.6L15.4,7.73L5.07,4.11z"/>
	</g>
</g>
</svg>
