<?xml version="1.0" encoding="utf-8"?>
<!-- Generator: Adobe Illustrator 21.1.0, SVG Export Plug-In . SVG Version: 6.00 Build 0)  -->
<svg version="1.1" id="レイヤー_1" xmlns="http://www.w3.org/2000/svg" xmlns:xlink="http://www.w3.org/1999/xlink" x="0px"
	 y="0px" viewBox="0 0 32 32" style="enable-background:new 0 0 32 32;" xml:space="preserve">
<style type="text/css">
	.st0{fill:#9FA0A0;}
	.st1{fill:#FCFCFC;}
</style>
<g>
	<path class="st0" d="M16.2,30.5L16.2,30.5c8.3,0,15-6.7,15-15l0,0c0-8.3-6.7-15-15-15l0,0c-8.3,0-15,6.7-15,15l0,0
		C1.2,23.8,7.9,30.5,16.2,30.5z"/>
</g>
<polygon class="st1" points="6.9,15.5 20.5,23.3 20.5,7.7 "/>
</svg>
